%YAML 1.1
%TAG !u! tag:unity3d.com,2011:
--- !u!1001 &8928922396376938567
PrefabInstance:
  m_ObjectHideFlags: 0
  serializedVersion: 2
  m_Modification:
    m_TransformParent: {fileID: 0}
    m_Modifications:
    - target: {fileID: 4126458266248326917, guid: 2073376bdab075d46b1bf32bdc19443d,
        type: 3}
      propertyPath: m_text
      value: Chapter 2
      objectReference: {fileID: 0}
    - target: {fileID: 4126458266248326917, guid: 2073376bdab075d46b1bf32bdc19443d,
        type: 3}
      propertyPath: m_textInfo.characterCount
      value: 9
      objectReference: {fileID: 0}
    - target: {fileID: 4126458266248326917, guid: 2073376bdab075d46b1bf32bdc19443d,
        type: 3}
      propertyPath: m_textInfo.wordCount
      value: 2
      objectReference: {fileID: 0}
    - target: {fileID: 4126458266248326917, guid: 2073376bdab075d46b1bf32bdc19443d,
        type: 3}
      propertyPath: m_textInfo.spaceCount
      value: 1
      objectReference: {fileID: 0}
    - target: {fileID: 4126458266248326919, guid: 2073376bdab075d46b1bf32bdc19443d,
        type: 3}
      propertyPath: m_Name
      value: Chapter 2 Text
      objectReference: {fileID: 0}
    - target: {fileID: 4126458266545002289, guid: 2073376bdab075d46b1bf32bdc19443d,
        type: 3}
      propertyPath: m_Name
      value: MapID 2
      objectReference: {fileID: 0}
    - target: {fileID: 4126458266545002295, guid: 2073376bdab075d46b1bf32bdc19443d,
        type: 3}
      propertyPath: m_firstOverflowCharacterIndex
      value: -1
      objectReference: {fileID: 0}
    - target: {fileID: 4126458266545002295, guid: 2073376bdab075d46b1bf32bdc19443d,
        type: 3}
      propertyPath: m_text
      value: 2
      objectReference: {fileID: 0}
    - target: {fileID: 4126458266545002295, guid: 2073376bdab075d46b1bf32bdc19443d,
        type: 3}
      propertyPath: m_textInfo.characterCount
      value: 1
      objectReference: {fileID: 0}
    - target: {fileID: 4126458266545002295, guid: 2073376bdab075d46b1bf32bdc19443d,
        type: 3}
      propertyPath: m_textInfo.spaceCount
      value: 0
      objectReference: {fileID: 0}
    - target: {fileID: 4126458267346876552, guid: 2073376bdab075d46b1bf32bdc19443d,
        type: 3}
      propertyPath: m_LocalPosition.x
      value: 0
      objectReference: {fileID: 0}
    - target: {fileID: 4126458267346876552, guid: 2073376bdab075d46b1bf32bdc19443d,
        type: 3}
      propertyPath: m_LocalPosition.y
      value: 0
      objectReference: {fileID: 0}
    - target: {fileID: 4126458267346876552, guid: 2073376bdab075d46b1bf32bdc19443d,
        type: 3}
      propertyPath: m_LocalPosition.z
      value: 0
      objectReference: {fileID: 0}
    - target: {fileID: 4126458267346876552, guid: 2073376bdab075d46b1bf32bdc19443d,
        type: 3}
      propertyPath: m_LocalRotation.x
      value: -0
      objectReference: {fileID: 0}
    - target: {fileID: 4126458267346876552, guid: 2073376bdab075d46b1bf32bdc19443d,
        type: 3}
      propertyPath: m_LocalRotation.y
      value: -0
      objectReference: {fileID: 0}
    - target: {fileID: 4126458267346876552, guid: 2073376bdab075d46b1bf32bdc19443d,
        type: 3}
      propertyPath: m_LocalRotation.z
      value: -0
      objectReference: {fileID: 0}
    - target: {fileID: 4126458267346876552, guid: 2073376bdab075d46b1bf32bdc19443d,
        type: 3}
      propertyPath: m_LocalRotation.w
      value: 1
      objectReference: {fileID: 0}
    - target: {fileID: 4126458267346876552, guid: 2073376bdab075d46b1bf32bdc19443d,
        type: 3}
      propertyPath: m_RootOrder
      value: 0
      objectReference: {fileID: 0}
    - target: {fileID: 4126458267346876552, guid: 2073376bdab075d46b1bf32bdc19443d,
        type: 3}
      propertyPath: m_LocalEulerAnglesHint.x
      value: 0
      objectReference: {fileID: 0}
    - target: {fileID: 4126458267346876552, guid: 2073376bdab075d46b1bf32bdc19443d,
        type: 3}
      propertyPath: m_LocalEulerAnglesHint.y
      value: 0
      objectReference: {fileID: 0}
    - target: {fileID: 4126458267346876552, guid: 2073376bdab075d46b1bf32bdc19443d,
        type: 3}
      propertyPath: m_LocalEulerAnglesHint.z
      value: 0
      objectReference: {fileID: 0}
    - target: {fileID: 4126458267346876552, guid: 2073376bdab075d46b1bf32bdc19443d,
        type: 3}
      propertyPath: m_AnchoredPosition.x
      value: 0
      objectReference: {fileID: 0}
    - target: {fileID: 4126458267346876552, guid: 2073376bdab075d46b1bf32bdc19443d,
        type: 3}
      propertyPath: m_AnchoredPosition.y
      value: 0
      objectReference: {fileID: 0}
    - target: {fileID: 4126458267346876552, guid: 2073376bdab075d46b1bf32bdc19443d,
        type: 3}
      propertyPath: m_SizeDelta.x
      value: 0
      objectReference: {fileID: 0}
    - target: {fileID: 4126458267346876552, guid: 2073376bdab075d46b1bf32bdc19443d,
        type: 3}
      propertyPath: m_SizeDelta.y
      value: 0
      objectReference: {fileID: 0}
    - target: {fileID: 4126458267346876552, guid: 2073376bdab075d46b1bf32bdc19443d,
        type: 3}
      propertyPath: m_AnchorMin.x
      value: 0
      objectReference: {fileID: 0}
    - target: {fileID: 4126458267346876552, guid: 2073376bdab075d46b1bf32bdc19443d,
        type: 3}
      propertyPath: m_AnchorMin.y
      value: 0
      objectReference: {fileID: 0}
    - target: {fileID: 4126458267346876552, guid: 2073376bdab075d46b1bf32bdc19443d,
        type: 3}
      propertyPath: m_AnchorMax.x
      value: 0
      objectReference: {fileID: 0}
    - target: {fileID: 4126458267346876552, guid: 2073376bdab075d46b1bf32bdc19443d,
        type: 3}
      propertyPath: m_AnchorMax.y
      value: 0
      objectReference: {fileID: 0}
    - target: {fileID: 4126458267346876552, guid: 2073376bdab075d46b1bf32bdc19443d,
        type: 3}
      propertyPath: m_Pivot.x
      value: 0.5
      objectReference: {fileID: 0}
    - target: {fileID: 4126458267346876552, guid: 2073376bdab075d46b1bf32bdc19443d,
        type: 3}
      propertyPath: m_Pivot.y
      value: 0.5
      objectReference: {fileID: 0}
    - target: {fileID: 4126458267346876555, guid: 2073376bdab075d46b1bf32bdc19443d,
        type: 3}
      propertyPath: m_Name
      value: Map Panel Chapter 2
      objectReference: {fileID: 0}
    m_RemovedComponents: []
  m_SourcePrefab: {fileID: 100100000, guid: 2073376bdab075d46b1bf32bdc19443d, type: 3}
